1 10 20
100 200 125
201 210 89
900 1000 174
717209 831288 468
742996 786592 468
144223 837397 509
5194 470785 449
277965 816425 509
954735 986152 458
347422 389586 436
566830 686785 509
39000 695943 509
45803 867027 525
517401 820832 509
166606 355111 443
958490 982337 458
132213 267187 443
12506 83044 351
361832 833388 509
530222 691041 509
502931 691850 509
496332 694765 509
830426 936465 525
995091 998818 440
616594 735349 509
637408 897679 525
381011 681206 509
357168 619707 470
692946 822059 504
14890 148560 375
721911 992375 525
672597 768392 504
189127 537034 470
321703 912575 525
479761 521025 470
220511 586965 470
365217 411893 449
345227 418888 449
902088 956674 507
113336 448513 449
508047 508238 258
593110 746424 509
34245 587938 470
538464 559216 452
132081 757636 509
474224 679473 509
12913 39688 324
322638 899531 525
117357 928919 525
686684 872232 525
66252 612772 470
103188 599680 470
330933 784781 509
217424 470435 449
587316 745450 509
143651 552753 470
623279 634475 509
766876 888319 525
401408 904619 525
106752 353126 443
684928 983936 525
507641 579622 470
797332 858453 525
487537 793463 509
536455 873185 525
949582 973370 458
530557 893922 525
995035 996093 365
728971 878791 525
975684 993141 427
428857 885450 525
269930 808625 509
387357 609250 470
353030 905378 525
256614 956950 525
89636 863221 525
205421 216082 373
930705 932314 370
405617 982951 525
35450 240029 443
474368 493621 426
632716 797647 504
848231 868481 419
225512 400210 443
159749 335334 443
351396 414088 449
599066 948079 525
819478 955085 525
993714 998389 440
226010 577530 470
551112 612344 434
513834 755603 509
842167 875683 432
289788 356873 441
133353 564074 470
292426 408015 441
632959 765699 504
59405 746106 509
495443 729866 509
991367 999360 440
405458 601327 470
402781 822114 509
200604 347087 443
848049 938936 476
822390 951648 525
838166 843068 388
586774 902427 525
496146 593791 470
902480 985065 507
619758 849881 525
894366 972774 507
904861 931223 476
628896 893867 525
707638 978782 525
364790 878697 525
253091 601574 470
256727 930993 525
494581 920337 525
844107 850105 419
284996 384577 441
792153 913656 525
659876 989268 525
279578 546524 470
983362 984091 383
28206 385851 443
829858 991052 525
333979 775205 509
154322 970584 525
155609 406182 443
136783 886857 525
510918 522323 470
183897 426410 449
976310 977215 334
306730 839825 525
802976 934011 525
584136 898521 525
229888 828077 509
140628 480168 449
626127 729649 509
315170 927096 525
772131 813938 468
199990 722675 509
225045 591002 470
958143 970931 458
454378 669093 509
233400 919858 525
871706 879953 432
89233 269234 443
22759 552621 470
919773 987817 507
73165 646446 509
756218 890905 525
651173 963773 525